// Auto generated SWIG file for Python interface of DOLFIN
//
// Copyright (C) 2012 Kristian B. Oelgaard
//
// This file is part of DOLFIN.
//
// DOLFIN is free software: you can redistribute it and/or modify
// it under the terms of the GNU Lesser General Public License as published by
// the Free Software Foundation, either version 3 of the License, or
// (at your option) any later version.
//
// DOLFIN is distributed in the hope that it will be useful,
// but WITHOUT ANY WARRANTY; without even the implied warranty of
// MERCHANTABILITY or FITNESS FOR A PARTICULAR PURPOSE. See the
// GNU Lesser General Public License for more details.
//
// You should have received a copy of the GNU Lesser General Public License
// along with DOLFIN. If not, see <http://www.gnu.org/licenses/>.
//

// Autogenerated docstrings file, extracted from the DOLFIN source C++ files.

// Documentation extracted from: (module=multistage, header=MultiStageScheme.h)
%feature("docstring")  dolfin::MultiStageScheme::MultiStageScheme "
**Overloaded versions**

* MultiStageScheme\ (stage_forms, last_stage, stage_solutions, u, t, dt, dt_stage_offset, jacobian_indices, order, name, human_form)

  Constructor
  FIXME: This constructor is a MESS. Needs clean up...

* MultiStageScheme\ (stage_forms, last_stage, stage_solutions, u, t, dt, dt_stage_offset, jacobian_indices, order, name, human_form, bcs)

  Constructor with Boundary conditions
";

%feature("docstring")  dolfin::MultiStageScheme::stage_forms "
Return the stages
";

%feature("docstring")  dolfin::MultiStageScheme::last_stage "
Return the last stage
";

%feature("docstring")  dolfin::MultiStageScheme::stage_solutions "
Return stage solutions
";

%feature("docstring")  dolfin::MultiStageScheme::solution "
**Overloaded versions**

* solution\ ()

  Return solution variable

* solution\ ()

  Return solution variable (const version)
";

%feature("docstring")  dolfin::MultiStageScheme::t "
Return local time
";

%feature("docstring")  dolfin::MultiStageScheme::dt "
Return local timestep
";

%feature("docstring")  dolfin::MultiStageScheme::dt_stage_offset "
Return local timestep
";

%feature("docstring")  dolfin::MultiStageScheme::order "
Return the order of the scheme
";

%feature("docstring")  dolfin::MultiStageScheme::bcs "
Return boundary conditions
";

%feature("docstring")  dolfin::MultiStageScheme::implicit "
**Overloaded versions**

* implicit\ (stage)

  Return true if stage is implicit

* implicit\ ()

  Return true if the whole scheme is implicit
";

%feature("docstring")  dolfin::MultiStageScheme::str "
Return informal string representation (pretty-print)
";

// Documentation extracted from: (module=multistage, header=RKSolver.h)
%feature("docstring")  dolfin::RKSolver::RKSolver "
Constructor
FIXME: Include version where one can pass a Solver and/or Parameters
";

%feature("docstring")  dolfin::RKSolver::step "
Step solver with time step dt
";

%feature("docstring")  dolfin::RKSolver::step_interval "
Step solver an interval using dt as time step
";

%feature("docstring")  dolfin::RKSolver::scheme "
Return the MultiStageScheme
";

// Documentation extracted from: (module=multistage, header=PointIntegralSolver.h)
%feature("docstring")  dolfin::PointIntegralSolver::PointIntegralSolver "
Constructor
FIXME: Include version where one can pass a Solver and/or
Parameters
";

%feature("docstring")  dolfin::PointIntegralSolver::step "
Step solver with time step dt
";

%feature("docstring")  dolfin::PointIntegralSolver::step_interval "
Step solver an interval using dt as time step
";

%feature("docstring")  dolfin::PointIntegralSolver::scheme "
Return the MultiStageScheme
";

%feature("docstring")  dolfin::PointIntegralSolver::default_parameters "
Default parameter values
";

